…
## 2. Income groups averages comparison for Constraints on Government Powers 2023 and 2024 respectively.

    ## # A tibble: 217 × 5
    ##    Country             Code  Region            `Income group` `Lending category`
    ##    <chr>               <chr> <chr>             <chr>          <chr>             
    ##  1 Afghanistan         AFG   South Asia        Low income     IDA               
    ##  2 Albania             ALB   Europe & Central… Upper middle … IBRD              
    ##  3 Algeria             DZA   Middle East & No… Upper middle … IBRD              
    ##  4 American Samoa      ASM   East Asia & Paci… High income    <NA>              
    ##  5 Andorra             AND   Europe & Central… High income    <NA>              
    ##  6 Angola              AGO   Sub-Saharan Afri… Lower middle … IBRD              
    ##  7 Antigua and Barbuda ATG   Latin America & … High income    IBRD              
    ##  8 Argentina           ARG   Latin America & … Upper middle … IBRD              
    ##  9 Armenia             ARM   Europe & Central… Upper middle … IBRD              
    ## 10 Aruba               ABW   Latin America & … High income    <NA>              
    ## # ℹ 207 more rows
…
